﻿#FFFFFFFF
#FFF2F3F2
#FFE6E6E6
#FFD8D8D8
#FFBDBDBD
#FFA4A4A4
#FF848484
#FF6E6E6E
#FF585757
#FF414141
#FF2D2E2D
#FF1A1A1A
#FF131313
#FF000000
#FFF7E1E7
#FFF5CFD9
#FFF3AABD
#FFF483A0
#FFF65B82
#FFFA3463
#FFFB153C
#FFDB1137
#FFB10F2F
#FF870C28
#FF5E0C21
#FF390917
#FF280911
#FF170609
#FFF7E1ED
#FFF5CFE5
#FFF2AAD3
#FFF383C1
#FFF55CB0
#FFF9369E
#FFFA1782
#FFDB1376
#FFB00F61
#FF870C4C
#FF5E0C39
#FF390925
#FF28091A
#FF17060F
#FFF7E1F3
#FFF4CFEF
#FFF2AAE5
#FFF283DD
#FFF55CD6
#FFF837CF
#FFF91CC5
#FFDA17AA
#FFB0118A
#FF860F6B
#FF5E0C4D
#FF39092F
#FF280922
#FF170613
#FFF7E1F9
#FFF4CFF8
#FFF1ABF7
#FFF284FA
#FFF45DFC
#FFF73AFF
#FFF821FF
#FFD91ADF
#FFAF15B4
#FF86118B
#FF5E0F61
#FF390C3B
#FF28092A
#FF170617
#FFF1E1F9
#FFEACFF8
#FFDFAAF9
#FFD583FD
#FFCD5CFF
#FFC537FF
#FFB71CFF
#FFA217E4
#FF8311B8
#FF650F8D
#FF490C63
#FF2D093C
#FF20092A
#FF110617
#FFEBE1FA
#FFE1CFFA
#FFCDAAFB
#FFB983FF
#FFA55CFF
#FF9136FF
#FF7617FF
#FF6B13E8
#FF580FBB
#FF450F90
#FF340C65
#FF21093D
#FF19092B
#FF0F0619
#FFE5E1FA
#FFD7CFFA
#FFB9AAFB
#FF9A83FF
#FF7A5BFF
#FF5834FF
#FF2915FF
#FF2711E8
#FF240FBB
#FF220C90
#FF1D0C65
#FF15093D
#FF0F092B
#FF090619
#FFE0E1FB
#FFCDCFFA
#FFA7AAFB
#FF7C82FF
#FF4D5AFF
#FF0F34FF
#FF0015FF
#FF0011E8
#FF000CBC
#FF060C90
#FF090C65
#FF09093D
#FF09092B
#FF060619
#FFE0E7FA
#FFCED9F9
#FFA8BDFA
#FF7EA0FE
#FF5183FF
#FF1A66FF
#FF0044FF
#FF003DE8
#FF0033BB
#FF062A8F
#FF092164
#FF09153D
#FF09112B
#FF060919
#FFE1EDFA
#FFCFE3F8
#FFAAD0F9
#FF81BEFC
#FF57ADFF
#FF299BFF
#FF0081FF
#FF0075E7
#FF0360BA
#FF064B8E
#FF093764
#FF09243C
#FF091A2B
#FF060F19
#FFE1F2F8
#FFCFECF7
#FFABE2F5
#FF85DAF8
#FF5ED3FB
#FF3ACCFF
#FF17BFFF
#FF15A9E0
#FF1189B5
#FF0F6A8A
#FF0F4B60
#FF0C2F3A
#FF092129
#FF061317
#FFE1F8F8
#FFD0F6F6
#FFADF5F3
#FF89F7F4
#FF67FAF5
#FF4AFEF8
#FF39FFFF
#FF32DFD8
#FF27B4AF
#FF1D8985
#FF15605E
#FF0F3A39
#FF092928
#FF061717
#FFE2F8F1
#FFD1F6EC
#FFAEF5E0
#FF8AF7D6
#FF69F9CD
#FF4FFDC4
#FF41FEBA
#FF38DEA0
#FF2CB382
#FF218965
#FF176049
#FF0F3A2D
#FF0C2921
#FF061713
#FFE2F8EC
#FFD1F6E2
#FFAFF5CD
#FF8BF6B9
#FF6BF9A4
#FF52FD8E
#FF47FE6D
#FF3CDE64
#FF2FB353
#FF248943
#FF196033
#FF0F3A22
#FF0C291A
#FF06170F
#FFE2F8DE
#FFD1F6CA
#FFB0F5A1
#FF8DF66F
#FF6EF92C
#FF56FD00
#FF49FE00
#FF3FDE00
#FF32B300
#FF268903
#FF1A6006
#FF113A09
#FF0C2909
#FF061706
#FFE8F8DE
#FFDBF6CA
#FFC1F5A0
#FFA8F66F
#FF90F92B
#FF78FD00
#FF60FE00
#FF55DE00
#FF45B300
#FF378903
#FF296006
#FF1A3A09
#FF132909
#FF091706
#FFEEF8DE
#FFE5F6CA
#FFD4F5A0
#FFC4F66E
#FFB4F929
#FFA5FD00
#FF8FFE00
#FF80DE00
#FF69B300
#FF528900
#FF3C6006
#FF263A09
#FF1C2909
#FF0F1706
#FFF2F8DE
#FFEEF6CA
#FFE4F5A0
#FFDCF76D
#FFD6F926
#FFCFFD00
#FFC7FE00
#FFACDE00
#FF8BB300
#FF6C8900
#FF4D6006
#FF2F3A09
#FF222909
#FF131706
#FFF8F8DE
#FFF6F6CA
#FFF4F59F
#FFF6F76D
#FFF7FA22
#FFFBFE00
#FFFFFF00
#FFDADF00
#FFB1B400
#FF888A00
#FF5F6006
#FF3A3A09
#FF292909
#FF171706
#FFF8F2DE
#FFF6ECCB
#FFF4E2A2
#FFF6DA73
#FFF8D33A
#FFFBCC00
#FFFFBF00
#FFDBA900
#FFB18900
#FF886A03
#FF5F4B06
#FF3A2F09
#FF282109
#FF171306
#FFF8ECDF
#FFF6E3CC
#FFF5D0A4
#FFF6BE78
#FFF9AD46
#FFFC9B00
#FFFC8100
#FFDD7500
#FFB26000
#FF894B03
#FF603709
#FF3A2409
#FF291A09
#FF170F06
#FFF8E7E0
#FFF6D9CD
#FFF4BDA6
#FFF5A07C
#FFF7834E
#FFFB661A
#FFFB4400
#FFDC3D00
#FFB13303
#FF882A06
#FF5F2109
#FF3A1709
#FF291109
#FF170906
#FFF8E1E0
#FFF5CFCE
#FFF3AAA8
#FFF4827F
#FFF65B54
#FFFA3424
#FFFB1500
#FFDB1100
#FFB10C03
#FF870C06
#FF5F0C09
#FF3A0909
#FF280909
#FF170606
